"filename", "language", "C#", "Python", "XML", "comment", "blank", "total"
"/home/kjoh/dmf-route-schedule/DMFRouteSchedule/Coordinate.cs", "C#", 33, 0, 0, 4, 3, 40
"/home/kjoh/dmf-route-schedule/DMFRouteSchedule/DMFExceptions.cs", "C#", 31, 0, 0, 0, 3, 34
"/home/kjoh/dmf-route-schedule/DMFRouteSchedule/DMFRouteSchedule.csproj", "XML", 0, 0, 11, 0, 0, 11
"/home/kjoh/dmf-route-schedule/DMFRouteSchedule/Execution.cs", "C#", 1012, 0, 0, 311, 65, 1388
"/home/kjoh/dmf-route-schedule/DMFRouteSchedule/Main.cs", "C#", 19, 0, 0, 17, 10, 46
"/home/kjoh/dmf-route-schedule/DMFRouteSchedule/Metrics.cs", "C#", 60, 0, 0, 12, 9, 81
"/home/kjoh/dmf-route-schedule/DMFRouteSchedule/OperationGraph.cs", "C#", 170, 0, 0, 22, 17, 209
"/home/kjoh/dmf-route-schedule/DMFRouteSchedule/OperationGraphGenerator.cs", "C#", 193, 0, 0, 23, 30, 246
"/home/kjoh/dmf-route-schedule/DMFRouteSchedule/OperationGraphInitializer.cs", "C#", 792, 0, 0, 96, 53, 941
"/home/kjoh/dmf-route-schedule/DMFRouteSchedule/Printer.cs", "C#", 250, 0, 0, 26, 24, 300
"/home/kjoh/dmf-route-schedule/DMFRouteSchedule/Schedule.cs", "C#", 16, 0, 0, 17, 6, 39
"/home/kjoh/dmf-route-schedule/DMFRouteSchedule/Topology.cs", "C#", 313, 0, 0, 95, 23, 431
"/home/kjoh/dmf-route-schedule/DMFRouteSchedule/visualize.py", "Python", 0, 184, 0, 67, 58, 309
"Total", "-", 2889, 184, 11, 690, 301, 4075