"filename", "language", "C#", "comment", "blank", "total"
"/home/kjoh/dmf-route-schedule/DMFRouteSchedule/Execution.cs", "C#", 0, -1, 0, -1
"/home/kjoh/dmf-route-schedule/DMFRouteSchedule/Main.cs", "C#", 0, 37, 2, 39
"/home/kjoh/dmf-route-schedule/DMFRouteSchedule/OperationGraph.cs", "C#", 15, 6, 2, 23
"/home/kjoh/dmf-route-schedule/DMFRouteSchedule/OperationGraphGenerator.cs", "C#", 295, 83, 7, 385
"/home/kjoh/dmf-route-schedule/DMFRouteSchedule/OperationGraphInitializer.cs", "C#", 2, 3, 0, 5
"Total", "-", 312, 128, 11, 451